1
Petrova A. A.
Cleaner
40
10
2
Karpov I. I.
Driver
40
10
3
Golubev L. I.
Driver
40
10
4
Drozdova U. M.
Cleaner
40
10
5
Novikova V. V.
Cleaner
40
10
6
Ivanov I. P.
Programmer
50
15
Project1
50000
0.1
7
Ivanov D. P.
Programmer
50
15
Project1
50000
0.1
8
Ivanov K. P.
Tester
50
15
Project1
50000
0.1
9
Ivanov K. P.
Tester
50
15
Project1
50000
0.1
10
Ivanov P. V.
TeamLeader
50
15
Project1
50000
0.1
100
4
11
Ivanov K. V.
Manager
50
Project1
50000
0.25
12
Ivanov V. A.
ProjectManager
50
Project1
50000
0.2
100
6
13
Ignatiev I. P.
Programmer
50
15
Project2
50000
0.1
14
Ignatiev D. P.
Programmer
50
15
Project2
50000
0.1
15
Ignatiev K. P.
Tester
50
15
Project2
50000
0.1
16
Ignatiev K. P.
Tester
50
15
Project2
50000
0.1
17
Ignatiev P. V.
TeamLeader
50
15
Project2
50000
0.1
100
4
18
Ignatiev K. V.
Manager
50
Project2
50000
0.25
19
Ignatiev V. A.
ProjectManager
50
Project2
50000
0.2
100
6
20
Filatov I. P.
Programmer
50
15
Project3
50000
0.1
21
Filatov D. P.
Programmer
50
15
Project3
50000
0.1
22
Filatov K. P.
Tester
50
15
Project3
50000
0.1
23
Filatov K. P.
Tester
50
15
Project3
50000
0.1
24
Filatov P. V.
TeamLeader
50
15
Project3
50000
0.1
100
4
25
Filatov K. V.
Manager
50
Project3
50000
0.25
26
Filatov V. A.
ProjectManager
50
Project3
50000
0.2
100
6
27
Shilov I. P.
Programmer
50
15
Project4
50000
0.1
28
Shilov D. P.
Programmer
50
15
Project4
50000
0.1
29
Shilov K. P.
Tester
50
15
Project4
50000
0.1
30
Shilov K. P.
Tester
50
15
Project4
50000
0.1
31
Shilov P. V.
TeamLeader
50
15
Project4
50000
0.1
100
4
32
Shilov K. V.
Manager
50
Project4
50000
0.25
33
Shilov V. A.
ProjectManager
50
Project4
50000
0.2
100
6
34
Shilov I. P.
Programmer
50
15
Project5
50000
0.1
35
Shilov D. P.
Programmer
50
15
Project5
50000
0.2
36
Shilov K. P.
Tester
50
15
Project5
50000
0.1
37
Shilov P. V.
TeamLeader
50
15
Project5
50000
0.1
100
3
38
Shilov K. V.
Manager
50
Project5
50000
0.25
39
Shilov V. A.
ProjectManager
50
Project5
50000
0.2
100
5
40
Chvanov L.L.
SeniorManager
50
Projects 1-5
50000
0.05
100
5
5